%YAML 1.1
%TAG !u! tag:unity3d.com,2011:
--- !u!78 &1
TagManager:
  serializedVersion: 2
  tags:
  - GameManager
  - graineArbre
  - arrosoir
  - plantule
  - plante
  - arbre
  - graineComcombre
  - pelle
  - houe
  - champ
  - comcombre
  - fruit
  - petitComcombre
  - comcombreGrand
  - graineTomate
  - pousseTomate
  - piedTomate
  - fruitComcombre
  - tomate
  - arme
  - monstre
  - balle
  - Canvas
  layers:
  - Default
  - TransparentFX
  - Ignore Raycast
  - 
  - Water
  - UI
  - 
  - 
  - PostProcessing
  - ground
  - attrapable
  - ChampFertile
  - plante
  - ordinateur
  - 
  - 
  - 
  - 
  - 
  - 
  - 
  - 
  - 
  - 
  - 
  - 
  - 
  - 
  - 
  - 
  - 
  - 
  m_SortingLayers:
  - name: Default
    uniqueID: 0
    locked: 0
